data_counter_tb_dump.vcd
$date
    Jan  3, 2023  15:52:05
$end
$version
    TOOL:	xmsim	22.09-s003
$end
$timescale
    1 ns
$end

$scope module data_counter_tb $end
$var parameter 32 !    CLK_DELAY $end
$var reg       1 "    r_enable $end
$var reg       1 #    r_clr $end
$var reg       1 $    r_clk $end
$var wire      1 %    w_done  $end
$var reg       5 &    r_cnt [4:0] $end

$scope module d_cnt $end
$var wire      1 '    i_clk  $end
$var wire      1 (    i_enable  $end
$var wire      1 )    i_clr  $end
$var reg       1 *    o_done $end
$var reg       5 +    o_cnt [4:0] $end
$upscope $end

$upscope $end

$enddefinitions $end
$dumpvars
b1010 !
0"
0#
0$
x%
bx &
0'
0(
0)
x*
bx +
$end
#10
1$
1'
0*
0%
#20
0$
0'
#30
1$
1'
1#
1)
#40
0$
0'
#50
1$
1'
b0 +
b0 &
#60
0$
0'
#70
1$
1'
0#
0)
#80
0$
0'
#90
1$
1'
#100
0$
0'
#110
1$
1'
1"
1(
#120
0$
0'
#130
1$
1'
b1 +
b1 &
#140
0$
0'
#150
1$
1'
b10 +
b10 &
#160
0$
0'
#170
1$
1'
b11 +
b11 &
#180
0$
0'
#190
1$
1'
b100 +
b100 &
#200
0$
0'
#210
1$
1'
b101 +
b101 &
#220
0$
0'
#230
1$
1'
b110 +
b110 &
#240
0$
0'
#250
1$
1'
b111 +
b111 &
#260
0$
0'
#270
1$
1'
b1000 +
b1000 &
#280
0$
0'
#290
1$
1'
b1001 +
b1001 &
#300
0$
0'
#310
1$
1'
b1010 +
b1010 &
#320
0$
0'
#330
1$
1'
b1011 +
b1011 &
#340
0$
0'
#350
1$
1'
b1100 +
b1100 &
#360
0$
0'
#370
1$
1'
b1101 +
b1101 &
#380
0$
0'
#390
1$
1'
b1110 +
b1110 &
#400
0$
0'
#410
1$
1'
b1111 +
b1111 &
#420
0$
0'
#430
1$
1'
b10000 +
b10000 &
#440
0$
0'
#450
1$
1'
b10001 +
b10001 &
#460
0$
0'
#470
1$
1'
b10010 +
b10010 &
#480
0$
0'
#490
1$
1'
b10011 +
b10011 &
#500
0$
0'
#510
1$
1'
b10100 +
b10100 &
#520
0$
0'
#530
1$
1'
b10101 +
b10101 &
#540
0$
0'
#550
1$
1'
b10110 +
b10110 &
#560
0$
0'
#570
1$
1'
b10111 +
b10111 &
#580
0$
0'
#590
1$
1'
b11000 +
b11000 &
#600
0$
0'
#610
1$
1'
b11001 +
1*
1%
b11001 &
#620
0$
0'
#630
1$
1'
b11010 +
0*
0%
b11010 &
#640
0$
0'
#650
1$
1'
b11011 +
b11011 &
#660
0$
0'
#670
1$
1'
b11100 +
b11100 &
#680
0$
0'
#690
1$
1'
b11101 +
b11101 &
#700
0$
0'
#710
1$
1'
b11110 +
b11110 &
#720
0$
0'
#730
1$
1'
b11111 +
b11111 &
#740
0$
0'
#750
1$
1'
b0 +
b0 &
#760
0$
0'
#770
1$
1'
b1 +
b1 &
#780
0$
0'
#790
1$
1'
b10 +
b10 &
#800
0$
0'
#810
1$
1'
b11 +
b11 &
#820
0$
0'
#830
1$
1'
b100 +
b100 &
#840
0$
0'
#850
1$
1'
b101 +
b101 &
#860
0$
0'
#870
1$
1'
b110 +
b110 &
#880
0$
0'
#890
1$
1'
b111 +
b111 &
#900
0$
0'
#910
1$
1'
0"
b1000 +
0(
b1000 &
#920
0$
0'
#930
1$
1'
#940
0$
0'
#950
1$
1'
#960
0$
0'
#970
1$
1'
#980
0$
0'
#990
1$
1'
#1000
0$
0'
#1010
1$
1'
#1020
0$
0'
#1030
1$
1'
#1040
0$
0'
#1050
1$
1'
#1060
0$
0'
#1070
1$
1'
#1080
0$
0'
#1090
1$
1'
#1100
0$
0'
#1110
1$
1'
1#
1)
#1120
0$
0'
#1130
1$
1'
b0 +
b0 &
#1140
0$
0'
#1150
1$
1'
#1160
0$
0'
#1170
1$
1'
#1180
0$
0'
#1190
1$
1'
#1200
0$
0'
#1210
1$
1'
#1220
0$
0'
#1230
1$
1'
#1240
0$
0'
#1250
1$
1'
#1260
0$
0'
#1270
1$
1'
#1280
0$
0'
#1290
1$
1'
#1300
0$
0'
#1310
1$
1'
0#
0)
