decoder_tb_dump.vcd
$date
    Jan  3, 2023  15:51:47
$end
$version
    TOOL:	xmsim	22.09-s003
$end
$timescale
    1 ps
$end

$scope module one_one_tb $end
$var parameter 32 !    CLK_DELAY $end
$var reg       1 "    r_enable $end
$var reg       1 #    r_clr $end
$var reg       8 $    r_binary [7:0] $end
$var wire     25 %    w_one_hot [24:0] $end
$var wire      1 &    w_drv_check  $end
$var reg       1 '    r_clk $end

$scope module decoder $end
$var wire      1 (    i_clk  $end
$var wire      1 )    i_enable  $end
$var wire      1 *    i_clr  $end
$var wire      8 +    i_binary [7:0] $end
$var reg      25 ,    o_one_hot [24:0] $end
$var reg       1 -    o_drv_check $end
$var reg      25 .    w_one_hot [24:0] $end
$upscope $end

$upscope $end

$enddefinitions $end
$dumpvars
b1010 !
0"
1#
b0 $
bx %
0&
0'
0(
0)
1*
b0 +
bx ,
0-
b1111111111111111111111111 .
$end
#10000
1'
1(
b1111111111111111111111111 ,
b1111111111111111111111111 %
#20000
0'
0(
#30000
1'
1(
0#
0*
#40000
0'
0(
#50000
1'
1(
#60000
0'
0(
#70000
1'
1(
1"
1)
b1111111111111111111111110 .
1-
1&
#80000
0'
0(
#90000
1'
1(
b1111111111111111111111110 ,
b1111111111111111111111110 %
#100000
0'
0(
#110000
1'
1(
0"
0)
b1111111111111111111111111 .
0-
0&
#120000
0'
0(
#130000
1'
1(
#140000
0'
0(
#150000
1'
1(
1"
b1000 $
b1000 +
1)
b1111111111111111011111111 .
1-
1&
#160000
0'
0(
#170000
1'
1(
b1111111111111111011111111 ,
b1111111111111111011111111 %
#180000
0'
0(
#190000
1'
1(
0"
1#
1*
0)
b1111111111111111111111111 .
0-
0&
#200000
0'
0(
#210000
1'
1(
b1111111111111111111111111 ,
b1111111111111111111111111 %
#220000
0'
0(
#230000
1'
1(
0#
0*
#240000
0'
0(
#250000
1'
1(
#260000
0'
0(
#270000
1'
1(
1"
b1000000 $
b1000000 +
1)
