fsmd_tb_dump.vcd
$date
    Jan  3, 2023  15:34:21
$end
$version
    TOOL:	xmsim	22.09-s003
$end
$timescale
    1 ns
$end

$scope module fsmd $end
$var wire      1 ##   i_clk  $end
$var wire      1 $#   i_spi_cs_n  $end
$var wire      1 %#   i_spi_clk  $end
$var wire      1 &#   i_spi_mosi  $end
$var wire      1 '#   i_rst_n  $end
$var reg       1 (#   o_piso_out $end
$var reg       1 )#   o_gclk $end
$var reg      25 *#   o_drv_sel [24:0] $end
$var reg       1 +#   o_drv_err $end
$var reg       1 ,#   o_comm_err $end
$var reg       4 -#   o_state [3:0] $end
$var wire      1 .#   w_drv_check  $end
$var wire      1 /#   w_cnt_done  $end
$var wire      5 0#   w_cnt [4:0] $end
$var wire      1 1#   w_one_hot_en  $end
$var wire      1 2#   w_one_hot_clr  $end
$var wire      1 3#   w_drv_gclk_en  $end
$var wire      1 4#   w_piso_en  $end
$var wire      1 5#   w_piso_clr  $end
$var wire      1 6#   w_cnt_en  $end
$var wire      1 7#   w_cnt_clr  $end
$var wire      1 8#   w_spi_rst_n  $end
$var wire      1 9#   w_rx_dv  $end
$var wire      8 :#   w_rx_byte [7:0] $end

$scope module fsm_control $end
$var wire      1 ##   i_clk  $end
$var wire      1 $#   i_spi_cs_n  $end
$var wire      1 '#   i_rst_n  $end
$var wire      1 9#   i_rx_dv  $end
$var wire      1 .#   i_drv_check  $end
$var wire      1 /#   i_cnt_done  $end
$var wire      5 0#   i_cnt [4:0] $end
$var reg       1 ;#   o_one_hot_en $end
$var reg       1 <#   o_one_hot_clr $end
$var reg       1 =#   o_drv_gclk_en $end
$var reg       1 >#   o_piso_en $end
$var reg       1 ?#   o_piso_clr $end
$var reg       1 @#   o_cnt_en $end
$var reg       1 A#   o_cnt_clr $end
$var reg       1 B#   o_spi_rst_n $end
$var reg       1 C#   o_drv_err $end
$var reg       1 D#   o_comm_err $end
$var reg       4 E#   o_state [3:0] $end
$var reg       4 F#   state [3:0] $end
$var reg       4 G#   next_state [3:0] $end
$var reg       8 H#   r_t [7:0] $end
$var reg       8 I#   r_t_pass [7:0] $end
$upscope $end


$scope module spi_subscriber $end
$var parameter 32 J#   SPI_MODE $end
$var wire      1 8#   i_rst_n  $end
$var wire      1 ##   i_clk  $end
$var reg       1 K#   o_rx_dv $end
$var reg       8 L#   o_rx_byte [7:0] $end
$var wire      1 %#   i_spi_clk  $end
$var wire      1 &#   i_spi_mosi  $end
$var wire      1 M#   w_cpol  $end
$var wire      1 N#   w_cpha  $end
$var wire      1 O#   w_spi_clk  $end
$var reg       3 P#   r_rx_bit_count [2:0] $end
$var reg       8 Q#   r_temp_rx_byte [7:0] $end
$var reg       8 R#   r_rx_byte [7:0] $end
$var reg       1 S#   r_rx_done $end
$var reg       1 T#   r2_rx_done $end
$var reg       1 U#   r3_rx_done $end
$upscope $end


$scope module gclk $end
$var wire      1 ##   i_clk  $end
$var wire      1 3#   i_enable  $end
$var wire      1 3#   i_scan_enable  $end
$var wire      1 V#   o_g_clk  $end
$var wire      1 W#   i_enable_in  $end
$var reg       1 X#   r_enable_latch $end
$upscope $end


$scope module piso $end
$var wire      1 ##   i_clk  $end
$var wire      1 4#   i_enable  $end
$var wire      1 5#   i_clr  $end
$var wire      8 :#   i_p_in [7:0] $end
$var reg       1 Y#   o_s_out $end
$var reg       8 Z#   temp [7:0] $end
$upscope $end


$scope module data_cnt $end
$var wire      1 ##   i_clk  $end
$var wire      1 6#   i_enable  $end
$var wire      1 7#   i_clr  $end
$var reg       1 [#   o_done $end
$var reg       5 \#   o_cnt [4:0] $end
$upscope $end


$scope module decoder $end
$var wire      1 ##   i_clk  $end
$var wire      1 1#   i_enable  $end
$var wire      1 2#   i_clr  $end
$var wire      8 :#   i_binary [7:0] $end
$var reg      25 ]#   o_one_hot [24:0] $end
$var reg       1 ^#   o_drv_check $end
$var reg      25 _#   w_one_hot [24:0] $end
$upscope $end

$upscope $end


$scope module SPI_Master_UUT $end
$var parameter 32 `#   SPI_MODE $end
$var parameter 32 a#   CLKS_PER_HALF_BIT $end
$var wire      1 b#   i_rst_n  $end
$var wire      1 c#   i_Clk  $end
$var wire      8 d#   i_TX_Byte [7:0] $end
$var wire      1 e#   i_TX_DV  $end
$var reg       1 f#   o_TX_Ready $end
$var reg       1 g#   o_RX_DV $end
$var reg       8 h#   o_RX_Byte [7:0] $end
$var reg       1 i#   o_SPI_Clk $end
$var wire      1 "#   i_SPI_MISO  $end
$var reg       1 j#   o_SPI_MOSI $end
$var wire      1 k#   w_CPOL  $end
$var wire      1 l#   w_CPHA  $end
$var reg       9 m#   r_SPI_Clk_Count [8:0] $end
$var reg       1 n#   r_SPI_Clk $end
$var reg       5 o#   r_SPI_Clk_Edges [4:0] $end
$var reg       1 p#   r_Leading_Edge $end
$var reg       1 q#   r_Trailing_Edge $end
$var reg       1 r#   r_TX_DV $end
$var reg       8 s#   r_TX_Byte [7:0] $end
$var reg       3 t#   r_RX_Bit_Count [2:0] $end
$var reg       3 u#   r_TX_Bit_Count [2:0] $end
$upscope $end


$enddefinitions $end
$dumpvars
b11001000 a#
b1 `#
b1 J#
b1 ,
b1100 "
b11001000 !
1#
x$
bx %
0&
0'
bx (
0)
0*
b0 +
0-
1.
0/
bx 0
bx 1
bx 2
bx 3
bx 4
bx 5
bx 6
bx 7
bx 8
bx 9
bx :
bx ;
bx <
bx =
bx >
bx ?
bx @
bx A
bx B
bx C
bx D
bx E
bx F
bx G
bx H
bx I
bx J
bx K
bx L
bx M
bx N
bx O
bx P
bx Q
bx R
bx S
bx T
bx U
bx V
bx W
bx X
bx Y
bx Z
bx [
bx \
bx ]
bx ^
bx _
bx `
bx a
bx b
bx c
bx d
bx e
bx f
bx g
bx h
bx i
bx j
bx k
bx l
bx m
bx n
bx o
bx p
bx q
bx r
bx s
bx t
bx u
bx v
bx w
bx x
bx y
bx z
bx {
bx |
bx }
bx ~
bx !!
bx "!
bx #!
bx $!
bx %!
bx &!
bx '!
bx (!
bx )!
bx *!
bx +!
bx ,!
bx -!
bx .!
bx /!
bx 0!
bx 1!
bx 2!
bx 3!
bx 4!
bx 5!
bx 6!
bx 7!
bx 8!
bx 9!
bx :!
bx ;!
bx <!
bx =!
bx >!
bx ?!
bx @!
bx A!
bx B!
bx C!
bx D!
bx E!
bx F!
bx G!
bx H!
bx I!
bx J!
bx K!
bx L!
bx M!
bx N!
bx O!
bx P!
bx Q!
bx R!
bx S!
bx T!
bx U!
bx V!
bx W!
bx X!
bx Y!
bx Z!
bx [!
bx \!
bx ]!
bx ^!
bx _!
bx `!
bx a!
bx b!
bx c!
bx d!
bx e!
bx f!
bx g!
bx h!
bx i!
bx j!
bx k!
bx l!
bx m!
bx n!
bx o!
bx p!
bx q!
bx r!
bx s!
bx t!
bx u!
bx v!
bx w!
bx x!
bx y!
bx z!
bx {!
bx |!
bx }!
bx ~!
bx !"
bx ""
bx #"
bx $"
bx %"
bx &"
bx '"
bx ("
bx )"
bx *"
bx +"
bx ,"
bx -"
bx ."
bx /"
bx 0"
bx 1"
bx 2"
bx 3"
bx 4"
bx 5"
bx 6"
bx 7"
bx 8"
bx 9"
bx :"
bx ;"
bx <"
bx ="
bx >"
bx ?"
bx @"
bx A"
bx B"
bx C"
bx D"
bx E"
bx F"
bx G"
bx H"
bx I"
bx J"
bx K"
bx L"
bx M"
bx N"
bx O"
bx P"
bx Q"
bx R"
bx S"
bx T"
bx U"
bx V"
bx W"
bx X"
bx Y"
bx Z"
bx ["
bx \"
bx ]"
bx ^"
bx _"
bx `"
bx a"
bx b"
bx c"
bx d"
bx e"
bx f"
bx g"
bx h"
bx i"
bx j"
bx k"
bx l"
bx m"
bx n"
bx o"
bx p"
bx q"
bx r"
bx s"
bx t"
xu"
0v"
0w"
xx"
xy"
b0 z"
0{"
1|"
x}"
x~"
bx !#
z"#
0##
1$#
x%#
x&#
1'#
0(#
0)#
bx *#
0+#
0,#
b0 -#
0.#
x/#
bx 0#
01#
12#
03#
04#
05#
06#
07#
08#
09#
b0 :#
0;#
1<#
0=#
0>#
0?#
0@#
0A#
0B#
0C#
0D#
b0 E#
b0 F#
b1 G#
bx H#
b1000 I#
0K#
b0 L#
0M#
1N#
xO#
b0 P#
bx Q#
bx R#
0S#
0T#
0U#
0V#
0W#
0X#
0Y#
bx Z#
x[#
bx \#
bx ]#
0^#
b1111111111111111111111111 _#
1b#
0c#
b0 d#
0e#
xf#
xg#
bx h#
xi#
xj#
0k#
1l#
bx m#
xn#
bx o#
xp#
xq#
xr#
bx s#
bx t#
bx u#
bx v#
bx w#
bx x#
bx y#
bx z#
bx {#
bx |#
bx }#
bx ~#
bx !$
bx "$
bx #$
bx $$
bx %$
bx &$
bx '$
bx ($
bx )$
bx *$
bx +$
bx ,$
bx -$
bx .$
bx /$
bx 0$
bx 1$
bx 2$
bx 3$
bx 4$
bx 5$
bx 6$
bx 7$
bx 8$
bx 9$
bx :$
bx ;$
bx <$
bx =$
bx >$
bx ?$
bx @$
bx A$
bx B$
bx C$
bx D$
bx E$
bx F$
bx G$
bx H$
bx I$
bx J$
bx K$
bx L$
bx M$
bx N$
bx O$
bx P$
bx Q$
bx R$
bx S$
bx T$
bx U$
bx V$
bx W$
bx X$
bx Y$
bx Z$
bx [$
bx \$
bx ]$
bx ^$
bx _$
bx `$
bx a$
bx b$
bx c$
bx d$
bx e$
bx f$
bx g$
bx h$
bx i$
bx j$
bx k$
bx l$
bx m$
bx n$
bx o$
bx p$
bx q$
bx r$
bx s$
bx t$
bx u$
bx v$
bx w$
bx x$
bx y$
bx z$
bx {$
bx |$
bx }$
bx ~$
bx !%
bx "%
bx #%
bx $%
bx %%
bx &%
bx '%
bx (%
bx )%
bx *%
bx +%
bx ,%
bx -%
bx .%
bx /%
bx 0%
bx 1%
bx 2%
bx 3%
bx 4%
bx 5%
bx 6%
bx 7%
bx 8%
bx 9%
bx :%
bx ;%
bx <%
bx =%
bx >%
bx ?%
bx @%
bx A%
bx B%
bx C%
bx D%
bx E%
bx F%
bx G%
bx H%
bx I%
bx J%
bx K%
bx L%
bx M%
bx N%
bx O%
bx P%
bx Q%
bx R%
bx S%
bx T%
bx U%
bx V%
bx W%
bx X%
bx Y%
bx Z%
bx [%
bx \%
bx ]%
bx ^%
bx _%
bx `%
bx a%
bx b%
bx c%
bx d%
bx e%
bx f%
bx g%
bx h%
bx i%
bx j%
bx k%
bx l%
bx m%
bx n%
bx o%
bx p%
bx q%
bx r%
bx s%
bx t%
bx u%
bx v%
bx w%
bx x%
bx y%
bx z%
bx {%
bx |%
bx }%
bx ~%
bx !&
bx "&
bx #&
bx $&
bx %&
bx &&
bx '&
bx (&
bx )&
bx *&
bx +&
bx ,&
bx -&
bx .&
bx /&
bx 0&
bx 1&
bx 2&
bx 3&
bx 4&
bx 5&
bx 6&
bx 7&
bx 8&
bx 9&
bx :&
bx ;&
bx <&
bx =&
bx >&
bx ?&
bx @&
bx A&
bx B&
bx C&
bx D&
bx E&
bx F&
bx G&
bx H&
bx I&
bx J&
bx K&
bx L&
bx M&
bx N&
bx O&
bx P&
bx Q&
bx R&
bx S&
bx T&
bx U&
bx V&
bx W&
bx X&
bx Y&
bx Z&
bx [&
bx \&
bx ]&
$end
#12
1w"
1c#
1##
b1111111111111111111111111 ]#
b1111111111111111111111111 *#
b1111111111111111111111111 (
0g#
0r#
0p#
0q#
1f#
b0 H#
b1 F#
0[#
1B#
b1 E#
18#
0/#
b1 -#
1}"
0~"
b1 +
#24
0w"
0c#
0##
b0 Z#
#36
1w"
1c#
1##
b111 u#
b111 t#
b1 H#
#48
0w"
0c#
0##
#60
1w"
1c#
1##
b10 H#
#72
0w"
0c#
0##
#84
1w"
1c#
1##
b11 H#
#96
0w"
0c#
0##
#108
1w"
1c#
1##
b100 H#
#120
0w"
0c#
0##
#132
1w"
1c#
1##
b101 H#
#144
0w"
0c#
0##
#156
1w"
1c#
1##
b110 H#
#168
0w"
0c#
0##
#180
1w"
1c#
1##
b111 H#
#192
0w"
0c#
0##
#204
1w"
1c#
1##
b1000 H#
#216
0w"
0c#
0##
#228
1w"
0#
0b#
0'#
1c#
1##
0j#
b0 h#
b0 s#
0f#
b0 o#
0n#
b0 m#
0i#
b0 H#
b0 F#
0B#
b0 E#
08#
b0 -#
0u"
0}"
b0 !#
0y"
0&#
0%#
b0 +
0O#
#240
0w"
0c#
0##
#252
1w"
1c#
1##
#264
0w"
0c#
0##
#276
1w"
1c#
1##
#288
0w"
0c#
0##
#300
1w"
1c#
1##
#312
0w"
0c#
0##
#324
1w"
1c#
1##
#336
0w"
0c#
0##
#348
1w"
1c#
1##
#360
0w"
0c#
0##
#372
1w"
1c#
1##
#384
0w"
0c#
0##
#396
1w"
1c#
1##
#408
0w"
0c#
0##
#420
1w"
1c#
1##
#432
0w"
0c#
0##
#444
1w"
1c#
1##
#456
0w"
0c#
0##
#468
1w"
1#
1b#
1'#
1c#
1##
1f#
b1 F#
b1 E#
1B#
18#
b1 -#
1}"
b1 +
#480
0w"
0c#
0##
#492
1w"
1c#
1##
b1 H#
#504
0w"
0c#
0##
#516
1w"
1c#
1##
b10 H#
#528
0w"
0c#
0##
#540
1w"
1c#
1##
b11 H#
#552
0w"
0c#
0##
#564
1w"
1c#
1##
b100 H#
#576
0w"
0c#
0##
#588
1w"
1c#
1##
b101 H#
#600
0w"
0c#
0##
#612
1w"
1c#
1##
b110 H#
#624
0w"
0c#
0##
#636
1w"
1c#
1##
b111 H#
#648
0w"
0c#
0##
#660
1w"
1c#
1##
b1000 H#
#672
0w"
0c#
0##
#684
1w"
1c#
1##
#696
0w"
0c#
0##
#708
1w"
1c#
1##
#720
0w"
0c#
0##
#732
1w"
1c#
1##
#744
0w"
0c#
0##
#756
1w"
1c#
1##
#768
0w"
0c#
0##
#780
1w"
1c#
1##
#792
0w"
0c#
0##
#804
1w"
1c#
1##
#816
0w"
0c#
0##
#828
1w"
1c#
1##
#840
0w"
0c#
0##
#852
1w"
1c#
1##
#864
0w"
0c#
0##
#876
1w"
1c#
1##
#888
0w"
0c#
0##
#900
1w"
1c#
1##
#912
0w"
0c#
0##
#924
1w"
1c#
1##
#936
0w"
0c#
0##
#948
1w"
1c#
1##
#960
0w"
0c#
0##
#972
1w"
1c#
1##
#984
0w"
0c#
0##
#996
1w"
1c#
1##
#1008
0w"
0c#
0##
#1020
1w"
1c#
1##
#1032
0w"
0c#
0##
#1044
1w"
1c#
1##
#1056
0w"
0c#
0##
#1068
1w"
1c#
1##
#1080
0w"
0c#
0##
#1092
1w"
1c#
1##
#1104
0w"
0c#
0##
#1116
1w"
1c#
1##
#1128
0w"
0c#
0##
#1140
1w"
1c#
1##
#1152
0w"
0c#
0##
#1164
1w"
1c#
1##
#1176
0w"
0c#
0##
#1188
1w"
1c#
1##
#1200
0w"
0c#
0##
#1212
1w"
1c#
1##
#1224
0w"
0c#
0##
#1236
1w"
1c#
1##
#1248
0w"
0c#
0##
#1260
1w"
1c#
1##
#1272
0w"
0c#
0##
#1284
1w"
1c#
1##
#1296
0w"
0c#
0##
#1308
1w"
1c#
1##
#1320
0w"
0c#
0##
#1332
1w"
1c#
1##
#1344
0w"
0c#
0##
#1356
1w"
1c#
1##
#1368
0w"
0c#
0##
#1380
1w"
1c#
1##
#1392
0w"
0c#
0##
#1404
1w"
1c#
1##
#1416
0w"
0c#
0##
#1428
1w"
1c#
1##
#1440
0w"
0c#
0##
#1452
1w"
1c#
1##
#1464
0w"
0c#
0##
#1476
1w"
1c#
1##
#1488
0w"
0c#
0##
#1500
1w"
1c#
1##
#1512
0w"
0c#
0##
#1524
1w"
1c#
1##
#1536
0w"
0c#
0##
#1548
1w"
1c#
1##
#1560
0w"
0c#
0##
#1572
1w"
1c#
1##
#1584
0w"
0c#
0##
#1596
1w"
1c#
1##
#1608
0w"
0c#
0##
#1620
1w"
1c#
1##
#1632
0w"
0c#
0##
#1644
1w"
1c#
1##
#1656
0w"
0c#
0##
#1668
1w"
1c#
1##
#1680
0w"
0c#
0##
#1692
1w"
1c#
1##
#1704
0w"
0c#
0##
#1716
1w"
1c#
1##
#1728
0w"
0c#
0##
#1740
1w"
1c#
1##
#1752
0w"
0c#
0##
#1764
1w"
1c#
1##
#1776
0w"
0c#
0##
#1788
1w"
1c#
1##
#1800
0w"
0c#
0##
#1812
1w"
1c#
1##
#1824
0w"
0c#
0##
#1836
1w"
1c#
1##
#1848
0w"
0c#
0##
#1860
1w"
1c#
1##
#1872
0w"
0c#
0##
#1884
1w"
1c#
1##
#1896
0w"
0c#
0##
#1908
1w"
1c#
1##
#1920
0w"
0c#
0##
#1932
1w"
1c#
1##
#1944
0w"
0c#
0##
#1956
1w"
1c#
1##
#1968
0w"
0c#
0##
#1980
1w"
1c#
1##
#1992
0w"
0c#
0##
#2004
1w"
1c#
1##
#2016
0w"
0c#
0##
#2028
1w"
1c#
1##
#2040
0w"
0c#
0##
#2052
1w"
1c#
1##
#2064
0w"
0c#
0##
#2076
1w"
1c#
1##
#2088
0w"
0c#
0##
#2100
1w"
1c#
1##
#2112
0w"
0c#
0##
#2124
1w"
1c#
1##
#2136
0w"
0c#
0##
#2148
1w"
1c#
1##
#2160
0w"
0c#
0##
#2172
1w"
1c#
1##
#2184
0w"
0c#
0##
#2196
1w"
1c#
1##
#2208
0w"
0c#
0##
#2220
1w"
1c#
1##
#2232
0w"
0c#
0##
#2244
1w"
1c#
1##
#2256
0w"
0c#
0##
#2268
1w"
1c#
1##
#2280
0w"
0c#
0##
#2292
1w"
1c#
1##
#2304
0w"
0c#
0##
#2316
1w"
1c#
1##
#2328
0w"
0c#
0##
#2340
1w"
1c#
1##
#2352
0w"
0c#
0##
#2364
1w"
1c#
1##
#2376
0w"
0c#
0##
#2388
1w"
1c#
1##
#2400
0w"
0c#
0##
#2412
1w"
1c#
1##
#2424
0w"
0c#
0##
#2436
1w"
1c#
1##
#2448
0w"
0c#
0##
#2460
1w"
1c#
1##
#2472
0w"
0c#
0##
#2484
1w"
1c#
1##
#2496
0w"
0c#
0##
#2508
1w"
1c#
1##
#2520
0w"
0c#
0##
#2532
1w"
1c#
1##
#2544
0w"
0c#
0##
#2556
1w"
1c#
1##
#2568
0w"
0c#
0##
#2580
1w"
1c#
1##
#2592
0w"
0c#
0##
#2604
1w"
1c#
1##
#2616
0w"
0c#
0##
#2628
1w"
1c#
1##
#2640
0w"
0c#
0##
#2652
1w"
1c#
1##
#2664
0w"
0c#
0##
#2676
1w"
1c#
1##
#2688
0w"
0c#
0##
#2700
1w"
1c#
1##
#2712
0w"
0c#
0##
#2724
1w"
1c#
1##
#2736
0w"
0c#
0##
#2748
1w"
1c#
1##
#2760
0w"
0c#
0##
#2772
1w"
1c#
1##
#2784
0w"
0c#
0##
#2796
1w"
1c#
1##
#2808
0w"
0c#
0##
#2820
1w"
1c#
1##
#2832
0w"
0c#
0##
#2844
1w"
1c#
1##
#2856
0w"
0c#
0##
#2868
1w"
b0 0
b1 1
b0 2
b0 3
b100 t"
b0 v#
b1 w#
b0 x#
b0 y#
b100 \&
1c#
1##
#2880
0w"
0c#
0##
#2892
1w"
b0 ]&
1c#
1##
0|"
0$#
#2904
0w"
0c#
0##
#2916
1w"
1c#
1##
1{"
1e#
#2928
0w"
0c#
0##
#2940
1w"
1c#
1##
0{"
1r#
0f#
b10000 o#
0e#
0}"
#2952
0w"
0c#
0##
#2964
1w"
1c#
1##
0r#
b1 m#
#2976
0w"
0c#
0##
#2988
1w"
1c#
1##
b10 m#
#3000
0w"
0c#
0##
#3012
1w"
1c#
1##
b11 m#
#3024
0w"
0c#
0##
#3036
1w"
1c#
1##
b100 m#
#3048
0w"
0c#
0##
#3060
1w"
1c#
1##
b101 m#
#3072
0w"
0c#
0##
#3084
1w"
1c#
1##
b110 m#
#3096
0w"
0c#
0##
#3108
1w"
1c#
1##
b111 m#
#3120
0w"
0c#
0##
#3132
1w"
1c#
1##
b1000 m#
#3144
0w"
0c#
0##
#3156
1w"
1c#
1##
b1001 m#
#3168
0w"
0c#
0##
#3180
1w"
1c#
1##
b1010 m#
#3192
0w"
0c#
0##
#3204
1w"
1c#
1##
b1011 m#
#3216
0w"
0c#
0##
#3228
1w"
1c#
1##
b1100 m#
#3240
0w"
0c#
0##
#3252
1w"
1c#
1##
b1101 m#
#3264
0w"
0c#
0##
#3276
1w"
1c#
1##
b1110 m#
#3288
0w"
0c#
0##
#3300
1w"
1c#
1##
b1111 m#
#3312
0w"
0c#
0##
#3324
1w"
1c#
1##
b10000 m#
#3336
0w"
0c#
0##
#3348
1w"
1c#
1##
b10001 m#
#3360
0w"
0c#
0##
#3372
1w"
1c#
1##
b10010 m#
#3384
0w"
0c#
0##
#3396
1w"
1c#
1##
b10011 m#
#3408
0w"
0c#
0##
#3420
1w"
1c#
1##
b10100 m#
#3432
0w"
0c#
0##
#3444
1w"
1c#
1##
b10101 m#
#3456
0w"
0c#
0##
#3468
1w"
1c#
1##
b10110 m#
#3480
0w"
0c#
0##
#3492
1w"
1c#
1##
b10111 m#
#3504
0w"
0c#
0##
#3516
1w"
1c#
1##
b11000 m#
#3528
0w"
0c#
0##
#3540
1w"
1c#
1##
b11001 m#
#3552
0w"
0c#
0##
#3564
1w"
1c#
1##
b11010 m#
#3576
0w"
0c#
0##
#3588
1w"
1c#
1##
b11011 m#
#3600
0w"
0c#
0##
#3612
1w"
1c#
1##
b11100 m#
#3624
0w"
0c#
0##
#3636
1w"
1c#
1##
b11101 m#
#3648
0w"
0c#
0##
#3660
1w"
1c#
1##
b11110 m#
#3672
0w"
0c#
0##
#3684
1w"
1c#
1##
b11111 m#
#3696
0w"
0c#
0##
#3708
1w"
1c#
1##
b100000 m#
#3720
0w"
0c#
0##
#3732
1w"
1c#
1##
b100001 m#
#3744
0w"
0c#
0##
#3756
1w"
1c#
1##
b100010 m#
#3768
0w"
0c#
0##
#3780
1w"
1c#
1##
b100011 m#
#3792
0w"
0c#
0##
#3804
1w"
1c#
1##
b100100 m#
#3816
0w"
0c#
0##
#3828
1w"
1c#
1##
b100101 m#
#3840
0w"
0c#
0##
#3852
1w"
1c#
1##
b100110 m#
#3864
0w"
0c#
0##
#3876
1w"
1c#
1##
b100111 m#
#3888
0w"
0c#
0##
#3900
1w"
1c#
1##
b101000 m#
#3912
0w"
0c#
0##
#3924
1w"
1c#
1##
b101001 m#
#3936
0w"
0c#
0##
#3948
1w"
1c#
1##
b101010 m#
#3960
0w"
0c#
0##
#3972
1w"
1c#
1##
b101011 m#
#3984
0w"
0c#
0##
#3996
1w"
1c#
1##
b101100 m#
#4008
0w"
0c#
0##
#4020
1w"
1c#
1##
b101101 m#
#4032
0w"
0c#
0##
#4044
1w"
1c#
1##
b101110 m#
#4056
0w"
0c#
0##
#4068
1w"
1c#
1##
b101111 m#
#4080
0w"
0c#
0##
#4092
1w"
1c#
1##
b110000 m#
#4104
0w"
0c#
0##
#4116
1w"
1c#
1##
b110001 m#
#4128
0w"
0c#
0##
#4140
1w"
1c#
1##
b110010 m#
#4152
0w"
0c#
0##
#4164
1w"
1c#
1##
b110011 m#
#4176
0w"
0c#
0##
#4188
1w"
1c#
1##
b110100 m#
#4200
0w"
0c#
0##
#4212
1w"
1c#
1##
b110101 m#
#4224
0w"
0c#
0##
#4236
1w"
1c#
1##
b110110 m#
#4248
0w"
0c#
0##
#4260
1w"
1c#
1##
b110111 m#
#4272
0w"
0c#
0##
#4284
1w"
1c#
1##
b111000 m#
#4296
0w"
0c#
0##
#4308
1w"
1c#
1##
b111001 m#
#4320
0w"
0c#
0##
#4332
1w"
1c#
1##
b111010 m#
#4344
0w"
0c#
0##
#4356
1w"
1c#
1##
b111011 m#
#4368
0w"
0c#
0##
#4380
1w"
1c#
1##
b111100 m#
#4392
0w"
0c#
0##
#4404
1w"
1c#
1##
b111101 m#
#4416
0w"
0c#
0##
#4428
1w"
1c#
1##
b111110 m#
#4440
0w"
0c#
0##
#4452
1w"
1c#
1##
b111111 m#
#4464
0w"
0c#
0##
#4476
1w"
1c#
1##
b1000000 m#
#4488
0w"
0c#
0##
#4500
1w"
1c#
1##
b1000001 m#
#4512
0w"
0c#
0##
#4524
1w"
1c#
1##
b1000010 m#
#4536
0w"
0c#
0##
#4548
1w"
1c#
1##
b1000011 m#
#4560
0w"
0c#
0##
#4572
1w"
1c#
1##
b1000100 m#
#4584
0w"
0c#
0##
#4596
1w"
1c#
1##
b1000101 m#
#4608
0w"
0c#
0##
#4620
1w"
1c#
1##
b1000110 m#
#4632
0w"
0c#
0##
#4644
1w"
1c#
1##
b1000111 m#
#4656
0w"
0c#
0##
#4668
1w"
1c#
1##
b1001000 m#
#4680
0w"
0c#
0##
#4692
1w"
1c#
1##
b1001001 m#
#4704
0w"
0c#
0##
#4716
1w"
1c#
1##
b1001010 m#
#4728
0w"
0c#
0##
#4740
1w"
1c#
1##
b1001011 m#
#4752
0w"
0c#
0##
#4764
1w"
1c#
1##
b1001100 m#
#4776
0w"
0c#
0##
#4788
1w"
1c#
1##
b1001101 m#
#4800
0w"
0c#
0##
#4812
1w"
1c#
1##
b1001110 m#
#4824
0w"
0c#
0##
#4836
1w"
1c#
1##
b1001111 m#
#4848
0w"
0c#
0##
#4860
1w"
1c#
1##
b1010000 m#
#4872
0w"
0c#
0##
#4884
1w"
1c#
1##
b1010001 m#
#4896
0w"
0c#
0##
#4908
1w"
1c#
1##
b1010010 m#
#4920
0w"
0c#
0##
#4932
1w"
1c#
1##
b1010011 m#
#4944
0w"
0c#
0##
#4956
1w"
1c#
1##
b1010100 m#
#4968
0w"
0c#
0##
#4980
1w"
1c#
1##
b1010101 m#
#4992
0w"
0c#
0##
#5004
1w"
1c#
1##
b1010110 m#
#5016
0w"
0c#
0##
#5028
1w"
1c#
1##
b1010111 m#
#5040
0w"
0c#
0##
#5052
1w"
1c#
1##
b1011000 m#
#5064
0w"
0c#
0##
#5076
1w"
1c#
1##
b1011001 m#
#5088
0w"
0c#
0##
#5100
1w"
1c#
1##
b1011010 m#
#5112
0w"
0c#
0##
#5124
1w"
1c#
1##
b1011011 m#
#5136
0w"
0c#
0##
#5148
1w"
1c#
1##
b1011100 m#
#5160
0w"
0c#
0##
#5172
1w"
1c#
1##
b1011101 m#
#5184
0w"
0c#
0##
#5196
1w"
1c#
1##
b1011110 m#
#5208
0w"
0c#
0##
#5220
1w"
1c#
1##
b1011111 m#
#5232
0w"
0c#
0##
#5244
1w"
1c#
1##
b1100000 m#
#5256
0w"
0c#
0##
#5268
1w"
1c#
1##
b1100001 m#
#5280
0w"
0c#
0##
#5292
1w"
1c#
1##
b1100010 m#
#5304
0w"
0c#
0##
#5316
1w"
1c#
1##
b1100011 m#
#5328
0w"
0c#
0##
#5340
1w"
1c#
1##
b1100100 m#
#5352
0w"
0c#
0##
#5364
1w"
1c#
1##
b1100101 m#
#5376
0w"
0c#
0##
#5388
1w"
1c#
1##
b1100110 m#
#5400
0w"
0c#
0##
#5412
1w"
1c#
1##
b1100111 m#
#5424
0w"
0c#
0##
#5436
1w"
1c#
1##
b1101000 m#
#5448
0w"
0c#
0##
#5460
1w"
1c#
1##
b1101001 m#
#5472
0w"
0c#
0##
#5484
1w"
1c#
1##
b1101010 m#
#5496
0w"
0c#
0##
#5508
1w"
1c#
1##
b1101011 m#
#5520
0w"
0c#
0##
#5532
1w"
1c#
1##
b1101100 m#
#5544
0w"
0c#
0##
#5556
1w"
1c#
1##
b1101101 m#
#5568
0w"
0c#
0##
#5580
1w"
1c#
1##
b1101110 m#
#5592
0w"
0c#
0##
#5604
1w"
1c#
1##
b1101111 m#
#5616
0w"
0c#
0##
#5628
1w"
1c#
1##
b1110000 m#
#5640
0w"
0c#
0##
#5652
1w"
1c#
1##
b1110001 m#
#5664
0w"
0c#
0##
#5676
1w"
1c#
1##
b1110010 m#
#5688
0w"
0c#
0##
#5700
1w"
1c#
1##
b1110011 m#
#5712
0w"
0c#
0##
#5724
1w"
1c#
1##
b1110100 m#
#5736
0w"
0c#
0##
#5748
1w"
1c#
1##
b1110101 m#
#5760
0w"
0c#
0##
#5772
1w"
1c#
1##
b1110110 m#
#5784
0w"
0c#
0##
#5796
1w"
1c#
1##
b1110111 m#
#5808
0w"
0c#
0##
#5820
1w"
1c#
1##
b1111000 m#
#5832
0w"
0c#
0##
#5844
1w"
1c#
1##
b1111001 m#
#5856
0w"
0c#
0##
#5868
1w"
1c#
1##
b1111010 m#
#5880
0w"
0c#
0##
#5892
1w"
1c#
1##
b1111011 m#
#5904
0w"
0c#
0##
#5916
1w"
1c#
1##
b1111100 m#
#5928
0w"
0c#
0##
#5940
1w"
1c#
1##
b1111101 m#
#5952
0w"
0c#
0##
#5964
1w"
1c#
1##
b1111110 m#
#5976
0w"
0c#
0##
#5988
1w"
1c#
1##
b1111111 m#
#6000
0w"
0c#
0##
#6012
1w"
1c#
1##
b10000000 m#
#6024
0w"
0c#
0##
#6036
1w"
1c#
1##
b10000001 m#
#6048
0w"
0c#
0##
#6060
1w"
1c#
1##
b10000010 m#
#6072
0w"
0c#
0##
#6084
1w"
1c#
1##
b10000011 m#
#6096
0w"
0c#
0##
#6108
1w"
1c#
1##
b10000100 m#
#6120
0w"
0c#
0##
#6132
1w"
1c#
1##
b10000101 m#
#6144
0w"
0c#
0##
#6156
1w"
1c#
1##
b10000110 m#
#6168
0w"
0c#
0##
#6180
1w"
1c#
1##
b10000111 m#
#6192
0w"
0c#
0##
#6204
1w"
1c#
1##
b10001000 m#
#6216
0w"
0c#
0##
#6228
1w"
1c#
1##
b10001001 m#
#6240
0w"
0c#
0##
#6252
1w"
1c#
1##
b10001010 m#
#6264
0w"
0c#
0##
#6276
1w"
1c#
1##
b10001011 m#
