piso_tb_dump.vcd
$date
    Jan  3, 2023  15:49:58
$end
$version
    TOOL:	xmsim	22.09-s003
$end
$timescale
    1 ns
$end

$scope module piso_tb $end
$var parameter 32 !    CLK_DELAY $end
$var reg       1 "    r_enable $end
$var reg       1 #    r_clr $end
$var reg       1 $    r_clk $end
$var reg       8 %    r_p_in [7:0] $end
$var wire      1 &    w_s_out  $end

$scope module piso $end
$var wire      1 '    i_clk  $end
$var wire      1 (    i_enable  $end
$var wire      1 )    i_clr  $end
$var wire      8 *    i_p_in [7:0] $end
$var reg       1 +    o_s_out $end
$var reg       8 ,    temp [7:0] $end
$upscope $end

$upscope $end

$enddefinitions $end
$dumpvars
b1010 !
0"
0#
0$
b1000 %
0&
0'
0(
0)
b1000 *
0+
bx ,
$end
#10
1$
1'
#20
0$
0'
b1000 ,
#30
1$
1'
1#
1)
#40
0$
0'
b0 ,
#50
1$
1'
#60
0$
0'
#70
1$
1'
0#
0)
#80
0$
0'
b1000 ,
#90
1$
1'
#100
0$
0'
#110
1$
1'
1"
1(
#120
0$
0'
b10000 ,
#130
1$
1'
#140
0$
0'
b100000 ,
#150
1$
1'
#160
0$
0'
b1000000 ,
#170
1$
1'
#180
0$
0'
b10000000 ,
#190
1$
1'
#200
0$
0'
1+
b0 ,
1&
#210
1$
1'
#220
0$
0'
0+
0&
#230
1$
1'
#240
0$
0'
#250
1$
1'
#260
0$
0'
#270
1$
1'
#280
0$
0'
#290
1$
1'
#300
0$
0'
#310
1$
1'
#320
0$
0'
#330
1$
1'
#340
0$
0'
#350
1$
1'
#360
0$
0'
#370
1$
1'
#380
0$
0'
#390
1$
1'
#400
0$
0'
#410
1$
1'
#420
0$
0'
#430
1$
1'
#440
0$
0'
#450
1$
1'
#460
0$
0'
#470
1$
1'
#480
0$
0'
#490
1$
1'
#500
0$
0'
#510
1$
1'
0"
0(
#520
0$
0'
b1000 ,
#530
1$
1'
#540
0$
0'
#550
1$
1'
#560
0$
0'
#570
1$
1'
#580
0$
0'
#590
1$
1'
#600
0$
0'
#610
1$
1'
#620
0$
0'
#630
1$
1'
#640
0$
0'
#650
1$
1'
#660
0$
0'
#670
1$
1'
#680
0$
0'
#690
1$
1'
#700
0$
0'
#710
1$
1'
1#
1)
#720
0$
0'
b0 ,
#730
1$
1'
#740
0$
0'
#750
1$
1'
#760
0$
0'
#770
1$
1'
#780
0$
0'
#790
1$
1'
#800
0$
0'
#810
1$
1'
#820
0$
0'
#830
1$
1'
#840
0$
0'
#850
1$
1'
#860
0$
0'
#870
1$
1'
#880
0$
0'
#890
1$
1'
#900
0$
0'
#910
1$
1'
0#
0)
#920
0$
0'
b1000 ,
