top_tb_dump.vcd
$date
    Jan  3, 2023  14:40:23
$end
$version
    TOOL:	xmsim	22.09-s003
$end
$timescale
    1 ns
$end

$scope module top_level_uut $end
$var wire      1 "#   i_clk  $end
$var reg       1 ##   o_pll_clk $end
$var wire      1 $#   i_rst_n  $end
$var wire      1 %#   i_spi_cs_n  $end
$var wire      1 &#   i_spi_mosi  $end
$var wire      1 '#   i_spi_clk  $end
$var reg      25 (#   o_drv_sel [24:0] $end
$var reg       1 )#   o_drv_mosi $end
$var reg       1 *#   o_drv_clk $end
$var reg       1 +#   o_drv_err $end
$var reg       1 ,#   o_comm_err $end
$var reg       4 -#   o_state [3:0] $end
$var reg       1 .#   r_spi_cs_n $end

$scope module fsmd $end
$var wire      1 /#   i_clk  $end
$var wire      1 0#   i_spi_cs_n  $end
$var wire      1 '#   i_spi_clk  $end
$var wire      1 &#   i_spi_mosi  $end
$var wire      1 $#   i_rst_n  $end
$var reg       1 1#   o_piso_out $end
$var reg       1 2#   o_gclk $end
$var reg      25 3#   o_drv_sel [24:0] $end
$var reg       1 4#   o_drv_err $end
$var reg       1 5#   o_comm_err $end
$var reg       4 6#   o_state [3:0] $end
$var wire      1 7#   w_drv_check  $end
$var wire      1 8#   w_cnt_done  $end
$var wire      5 9#   w_cnt [4:0] $end
$var wire      1 :#   w_one_hot_en  $end
$var wire      1 ;#   w_one_hot_clr  $end
$var wire      1 <#   w_drv_gclk_en  $end
$var wire      1 =#   w_piso_en  $end
$var wire      1 >#   w_piso_clr  $end
$var wire      1 ?#   w_cnt_en  $end
$var wire      1 @#   w_cnt_clr  $end
$var wire      1 A#   w_spi_rst_n  $end
$var wire      1 B#   w_rx_dv  $end
$var wire      8 C#   w_rx_byte [7:0] $end

$scope module fsm_control $end
$var wire      1 /#   i_clk  $end
$var wire      1 0#   i_spi_cs_n  $end
$var wire      1 $#   i_rst_n  $end
$var wire      1 B#   i_rx_dv  $end
$var wire      1 7#   i_drv_check  $end
$var wire      1 8#   i_cnt_done  $end
$var wire      5 9#   i_cnt [4:0] $end
$var reg       1 D#   o_one_hot_en $end
$var reg       1 E#   o_one_hot_clr $end
$var reg       1 F#   o_drv_gclk_en $end
$var reg       1 G#   o_piso_en $end
$var reg       1 H#   o_piso_clr $end
$var reg       1 I#   o_cnt_en $end
$var reg       1 J#   o_cnt_clr $end
$var reg       1 K#   o_spi_rst_n $end
$var reg       1 L#   o_drv_err $end
$var reg       1 M#   o_comm_err $end
$var reg       4 N#   o_state [3:0] $end
$var reg       4 O#   state [3:0] $end
$var reg       4 P#   next_state [3:0] $end
$var reg       8 Q#   r_t [7:0] $end
$var reg       8 R#   r_t_pass [7:0] $end
$upscope $end


$scope module spi_subscriber $end
$var parameter 32 S#   SPI_MODE $end
$var wire      1 A#   i_rst_n  $end
$var wire      1 /#   i_clk  $end
$var reg       1 T#   o_rx_dv $end
$var reg       8 U#   o_rx_byte [7:0] $end
$var wire      1 '#   i_spi_clk  $end
$var wire      1 &#   i_spi_mosi  $end
$var wire      1 V#   w_cpol  $end
$var wire      1 W#   w_cpha  $end
$var wire      1 X#   w_spi_clk  $end
$var reg       3 Y#   r_rx_bit_count [2:0] $end
$var reg       8 Z#   r_temp_rx_byte [7:0] $end
$var reg       8 [#   r_rx_byte [7:0] $end
$var reg       1 \#   r_rx_done $end
$var reg       1 ]#   r2_rx_done $end
$var reg       1 ^#   r3_rx_done $end
$upscope $end


$scope module gclk $end
$var wire      1 /#   i_clk  $end
$var wire      1 <#   i_enable  $end
$var wire      1 <#   i_scan_enable  $end
$var wire      1 _#   o_g_clk  $end
$var wire      1 `#   i_enable_in  $end
$var reg       1 a#   r_enable_latch $end
$upscope $end


$scope module piso $end
$var wire      1 /#   i_clk  $end
$var wire      1 =#   i_enable  $end
$var wire      1 >#   i_clr  $end
$var wire      8 C#   i_p_in [7:0] $end
$var reg       1 b#   o_s_out $end
$var reg       8 c#   temp [7:0] $end
$upscope $end


$scope module data_cnt $end
$var wire      1 /#   i_clk  $end
$var wire      1 ?#   i_enable  $end
$var wire      1 @#   i_clr  $end
$var reg       1 d#   o_done $end
$var reg       5 e#   o_cnt [4:0] $end
$upscope $end


$scope module decoder $end
$var wire      1 /#   i_clk  $end
$var wire      1 :#   i_enable  $end
$var wire      1 ;#   i_clr  $end
$var wire      8 C#   i_binary [7:0] $end
$var reg      25 f#   o_one_hot [24:0] $end
$var reg       1 g#   o_drv_check $end
$var reg      25 h#   w_one_hot [24:0] $end
$upscope $end

$upscope $end

$upscope $end


$scope module SPI_Master_UUT $end
$var parameter 32 i#   SPI_MODE $end
$var parameter 32 j#   CLKS_PER_HALF_BIT $end
$var wire      1 k#   i_rst_n  $end
$var wire      1 l#   i_Clk  $end
$var wire      8 m#   i_TX_Byte [7:0] $end
$var wire      1 n#   i_TX_DV  $end
$var reg       1 o#   o_TX_Ready $end
$var reg       1 p#   o_RX_DV $end
$var reg       8 q#   o_RX_Byte [7:0] $end
$var reg       1 r#   o_SPI_Clk $end
$var wire      1 s#   i_SPI_MISO  $end
$var reg       1 t#   o_SPI_MOSI $end
$var wire      1 u#   w_CPOL  $end
$var wire      1 v#   w_CPHA  $end
$var reg       9 w#   r_SPI_Clk_Count [8:0] $end
$var reg       1 x#   r_SPI_Clk $end
$var reg       5 y#   r_SPI_Clk_Edges [4:0] $end
$var reg       1 z#   r_Leading_Edge $end
$var reg       1 {#   r_Trailing_Edge $end
$var reg       1 |#   r_TX_DV $end
$var reg       8 }#   r_TX_Byte [7:0] $end
$var reg       3 ~#   r_RX_Bit_Count [2:0] $end
$var reg       3 !$   r_TX_Bit_Count [2:0] $end
$upscope $end

$enddefinitions $end
$dumpvars
b11001000 j#
b1 i#
b1 S#
b1100 "
b11001000 !
0#
1$
1%
bx &
bx '
bx (
bx )
bx *
bx +
bx ,
bx -
bx .
bx /
bx 0
bx 1
bx 2
bx 3
bx 4
bx 5
bx 6
bx 7
bx 8
bx 9
bx :
bx ;
bx <
bx =
bx >
bx ?
bx @
bx A
bx B
bx C
bx D
bx E
bx F
bx G
bx H
bx I
bx J
bx K
bx L
bx M
bx N
bx O
bx P
bx Q
bx R
bx S
bx T
bx U
bx V
bx W
bx X
bx Y
bx Z
bx [
bx \
bx ]
bx ^
bx _
bx `
bx a
bx b
bx c
bx d
bx e
bx f
bx g
bx h
bx i
bx j
bx k
bx l
bx m
bx n
bx o
bx p
bx q
bx r
bx s
bx t
bx u
bx v
bx w
bx x
bx y
bx z
bx {
bx |
bx }
bx ~
bx !!
bx "!
bx #!
bx $!
bx %!
bx &!
bx '!
bx (!
bx )!
bx *!
bx +!
bx ,!
bx -!
bx .!
bx /!
bx 0!
bx 1!
bx 2!
bx 3!
bx 4!
bx 5!
bx 6!
bx 7!
bx 8!
bx 9!
bx :!
bx ;!
bx <!
bx =!
bx >!
bx ?!
bx @!
bx A!
bx B!
bx C!
bx D!
bx E!
bx F!
bx G!
bx H!
bx I!
bx J!
bx K!
bx L!
bx M!
bx N!
bx O!
bx P!
bx Q!
bx R!
bx S!
bx T!
bx U!
bx V!
bx W!
bx X!
bx Y!
bx Z!
bx [!
bx \!
bx ]!
bx ^!
bx _!
bx `!
bx a!
bx b!
bx c!
bx d!
bx e!
bx f!
bx g!
bx h!
bx i!
bx j!
bx k!
bx l!
bx m!
bx n!
bx o!
bx p!
bx q!
bx r!
bx s!
bx t!
bx u!
bx v!
bx w!
bx x!
bx y!
bx z!
bx {!
bx |!
bx }!
bx ~!
bx !"
bx ""
bx #"
bx $"
bx %"
bx &"
bx '"
bx ("
bx )"
bx *"
bx +"
bx ,"
bx -"
bx ."
bx /"
bx 0"
bx 1"
bx 2"
bx 3"
bx 4"
bx 5"
bx 6"
bx 7"
bx 8"
bx 9"
bx :"
bx ;"
bx <"
bx ="
bx >"
bx ?"
bx @"
bx A"
bx B"
bx C"
bx D"
bx E"
bx F"
bx G"
bx H"
bx I"
bx J"
bx K"
bx L"
bx M"
bx N"
bx O"
bx P"
bx Q"
bx R"
bx S"
bx T"
bx U"
bx V"
bx W"
bx X"
bx Y"
bx Z"
bx ["
bx \"
bx ]"
bx ^"
bx _"
bx `"
bx a"
bx b"
bx c"
bx d"
bx e"
bx f"
bx g"
bx h"
bx i"
bx j"
xk"
0l"
0m"
xn"
xo"
b0 p"
0q"
1r"
xs"
xt"
bx u"
xv"
xw"
bx x"
bx y"
bx z"
0{"
0|"
x}"
0~"
0!#
0"#
0##
1$#
1%#
x&#
x'#
bx (#
0)#
0*#
0+#
0,#
b0 -#
x.#
0/#
x0#
01#
02#
bx 3#
04#
05#
b0 6#
07#
x8#
bx 9#
0:#
1;#
0<#
0=#
0>#
0?#
0@#
0A#
0B#
b0 C#
0D#
1E#
0F#
0G#
0H#
0I#
0J#
0K#
0L#
0M#
b0 N#
b0 O#
b1 P#
bx Q#
b1000 R#
0T#
b0 U#
0V#
1W#
xX#
b0 Y#
bx Z#
bx [#
0\#
0]#
0^#
0_#
0`#
0a#
0b#
bx c#
xd#
bx e#
bx f#
0g#
b1111111111111111111111111 h#
1k#
0l#
b0 m#
0n#
xo#
xp#
bx q#
xr#
xs#
xt#
0u#
1v#
bx w#
xx#
bx y#
xz#
x{#
x|#
bx }#
bx ~#
bx !$
bx "$
bx #$
bx $$
bx %$
bx &$
bx '$
bx ($
bx )$
bx *$
bx +$
bx ,$
bx -$
bx .$
bx /$
bx 0$
bx 1$
bx 2$
bx 3$
bx 4$
bx 5$
bx 6$
bx 7$
bx 8$
bx 9$
bx :$
bx ;$
bx <$
bx =$
bx >$
bx ?$
bx @$
bx A$
bx B$
bx C$
bx D$
bx E$
bx F$
bx G$
bx H$
bx I$
bx J$
bx K$
bx L$
bx M$
bx N$
bx O$
bx P$
bx Q$
bx R$
bx S$
bx T$
bx U$
bx V$
bx W$
bx X$
bx Y$
bx Z$
bx [$
bx \$
bx ]$
bx ^$
bx _$
bx `$
bx a$
bx b$
bx c$
bx d$
bx e$
bx f$
bx g$
bx h$
bx i$
bx j$
bx k$
bx l$
bx m$
bx n$
bx o$
bx p$
bx q$
bx r$
bx s$
bx t$
bx u$
bx v$
bx w$
bx x$
bx y$
bx z$
bx {$
bx |$
bx }$
bx ~$
bx !%
bx "%
bx #%
bx $%
bx %%
bx &%
bx '%
bx (%
bx )%
bx *%
bx +%
bx ,%
bx -%
bx .%
bx /%
bx 0%
bx 1%
bx 2%
bx 3%
bx 4%
bx 5%
bx 6%
bx 7%
bx 8%
bx 9%
bx :%
bx ;%
bx <%
bx =%
bx >%
bx ?%
bx @%
bx A%
bx B%
bx C%
bx D%
bx E%
bx F%
bx G%
bx H%
bx I%
bx J%
bx K%
bx L%
bx M%
bx N%
bx O%
bx P%
bx Q%
bx R%
bx S%
bx T%
bx U%
bx V%
bx W%
bx X%
bx Y%
bx Z%
bx [%
bx \%
bx ]%
bx ^%
bx _%
bx `%
bx a%
bx b%
bx c%
bx d%
bx e%
bx f%
bx g%
bx h%
bx i%
bx j%
bx k%
bx l%
bx m%
bx n%
bx o%
bx p%
bx q%
bx r%
bx s%
bx t%
bx u%
bx v%
bx w%
bx x%
bx y%
bx z%
bx {%
bx |%
bx }%
bx ~%
bx !&
bx "&
bx #&
bx $&
bx %&
bx &&
bx '&
bx (&
bx )&
bx *&
bx +&
bx ,&
bx -&
bx .&
bx /&
bx 0&
bx 1&
bx 2&
bx 3&
bx 4&
bx 5&
bx 6&
bx 7&
bx 8&
bx 9&
bx :&
bx ;&
bx <&
bx =&
bx >&
bx ?&
bx @&
bx A&
bx B&
bx C&
bx D&
bx E&
bx F&
bx G&
bx H&
bx I&
bx J&
bx K&
bx L&
bx M&
bx N&
bx O&
bx P&
bx Q&
bx R&
bx S&
bx T&
bx U&
bx V&
bx W&
bx X&
bx Y&
bx Z&
bx [&
bx \&
bx ]&
bx ^&
bx _&
bx `&
bx a&
bx b&
bx c&
bx d&
bx e&
bx f&
bx g&
$end
#12
1m"
1l#
1"#
1##
1/#
b1111111111111111111111111 f#
b1111111111111111111111111 3#
b1111111111111111111111111 (#
b1111111111111111111111111 z"
0p#
0|#
0z#
0{#
1o#
1.#
b0 Q#
b1 O#
0d#
1K#
b1 N#
1A#
10#
08#
b1 6#
1s"
0t"
b1 -#
#24
0m"
0l#
0"#
0##
0/#
b0 c#
#36
1m"
1l#
1"#
1##
1/#
b111 !$
b111 ~#
b1 Q#
#48
0m"
0l#
0"#
0##
0/#
#60
1m"
1l#
1"#
1##
1/#
b10 Q#
#72
0m"
0l#
0"#
0##
0/#
#84
1m"
1l#
1"#
1##
1/#
b11 Q#
#96
0m"
0l#
0"#
0##
0/#
#108
1m"
1l#
1"#
1##
1/#
b100 Q#
#120
0m"
0l#
0"#
0##
0/#
#132
1m"
1l#
1"#
1##
1/#
b101 Q#
#144
0m"
0l#
0"#
0##
0/#
#156
1m"
1l#
1"#
1##
1/#
b110 Q#
#168
0m"
0l#
0"#
0##
0/#
#180
1m"
1l#
1"#
1##
1/#
b111 Q#
#192
0m"
0l#
0"#
0##
0/#
#204
1m"
1l#
1"#
1##
1/#
b1000 Q#
#216
0m"
0l#
0"#
0##
0/#
#228
1m"
0%
0k#
0$#
1l#
1"#
1##
1/#
0t#
b0 q#
b0 }#
0o#
b0 y#
0x#
b0 w#
0r#
b0 Q#
b0 O#
0K#
b0 N#
0A#
b0 6#
0k"
0s"
b0 u"
0o"
0&#
0'#
0X#
b0 -#
#240
0m"
0l#
0"#
0##
0/#
#252
1m"
1l#
1"#
1##
1/#
#264
0m"
0l#
0"#
0##
0/#
#276
1m"
1l#
1"#
1##
1/#
#288
0m"
0l#
0"#
0##
0/#
#300
1m"
1l#
1"#
1##
1/#
#312
0m"
0l#
0"#
0##
0/#
#324
1m"
1l#
1"#
1##
1/#
#336
0m"
0l#
0"#
0##
0/#
#348
1m"
1l#
1"#
1##
1/#
#360
0m"
0l#
0"#
0##
0/#
#372
1m"
1l#
1"#
1##
1/#
#384
0m"
0l#
0"#
0##
0/#
#396
1m"
1l#
1"#
1##
1/#
#408
0m"
0l#
0"#
0##
0/#
#420
1m"
1l#
1"#
1##
1/#
#432
0m"
0l#
0"#
0##
0/#
#444
1m"
1l#
1"#
1##
1/#
#456
0m"
0l#
0"#
0##
0/#
#468
1m"
1%
1k#
1$#
1l#
1"#
1##
1/#
1o#
b1 O#
b1 N#
1K#
1A#
b1 6#
1s"
b1 -#
#480
0m"
0l#
0"#
0##
0/#
#492
1m"
1l#
1"#
1##
1/#
b1 Q#
#504
0m"
0l#
0"#
0##
0/#
#516
1m"
1l#
1"#
1##
1/#
b10 Q#
#528
0m"
0l#
0"#
0##
0/#
#540
1m"
1l#
1"#
1##
1/#
b11 Q#
#552
0m"
0l#
0"#
0##
0/#
#564
1m"
1l#
1"#
1##
1/#
b100 Q#
#576
0m"
0l#
0"#
0##
0/#
#588
1m"
1l#
1"#
1##
1/#
b101 Q#
#600
0m"
0l#
0"#
0##
0/#
#612
1m"
1l#
1"#
1##
1/#
b110 Q#
#624
0m"
0l#
0"#
0##
0/#
#636
1m"
1l#
1"#
1##
1/#
b111 Q#
#648
0m"
0l#
0"#
0##
0/#
#660
1m"
1l#
1"#
1##
1/#
b1000 Q#
#672
0m"
0l#
0"#
0##
0/#
#684
1m"
1l#
1"#
1##
1/#
#696
0m"
0l#
0"#
0##
0/#
#708
1m"
1l#
1"#
1##
1/#
#720
0m"
0l#
0"#
0##
0/#
#732
1m"
1l#
1"#
1##
1/#
#744
0m"
0l#
0"#
0##
0/#
#756
1m"
1l#
1"#
1##
1/#
#768
0m"
0l#
0"#
0##
0/#
#780
1m"
1l#
1"#
1##
1/#
#792
0m"
0l#
0"#
0##
0/#
#804
1m"
1l#
1"#
1##
1/#
#816
0m"
0l#
0"#
0##
0/#
#828
1m"
1l#
1"#
1##
1/#
#840
0m"
0l#
0"#
0##
0/#
#852
1m"
1l#
1"#
1##
1/#
#864
0m"
0l#
0"#
0##
0/#
#876
1m"
1l#
1"#
1##
1/#
#888
0m"
0l#
0"#
0##
0/#
#900
1m"
1l#
1"#
1##
1/#
#912
0m"
0l#
0"#
0##
0/#
#924
1m"
1l#
1"#
1##
1/#
#936
0m"
0l#
0"#
0##
0/#
#948
1m"
1l#
1"#
1##
1/#
#960
0m"
0l#
0"#
0##
0/#
#972
1m"
1l#
1"#
1##
1/#
#984
0m"
0l#
0"#
0##
0/#
#996
1m"
1l#
1"#
1##
1/#
#1008
0m"
0l#
0"#
0##
0/#
#1020
1m"
1l#
1"#
1##
1/#
#1032
0m"
0l#
0"#
0##
0/#
#1044
1m"
1l#
1"#
1##
1/#
#1056
0m"
0l#
0"#
0##
0/#
#1068
1m"
1l#
1"#
1##
1/#
#1080
0m"
0l#
0"#
0##
0/#
#1092
1m"
1l#
1"#
1##
1/#
#1104
0m"
0l#
0"#
0##
0/#
#1116
1m"
1l#
1"#
1##
1/#
#1128
0m"
0l#
0"#
0##
0/#
#1140
1m"
1l#
1"#
1##
1/#
#1152
0m"
0l#
0"#
0##
0/#
#1164
1m"
1l#
1"#
1##
1/#
#1176
0m"
0l#
0"#
0##
0/#
#1188
1m"
1l#
1"#
1##
1/#
#1200
0m"
0l#
0"#
0##
0/#
#1212
1m"
1l#
1"#
1##
1/#
#1224
0m"
0l#
0"#
0##
0/#
#1236
1m"
1l#
1"#
1##
1/#
#1248
0m"
0l#
0"#
0##
0/#
#1260
1m"
1l#
1"#
1##
1/#
#1272
0m"
0l#
0"#
0##
0/#
#1284
1m"
1l#
1"#
1##
1/#
#1296
0m"
0l#
0"#
0##
0/#
#1308
1m"
1l#
1"#
1##
1/#
#1320
0m"
0l#
0"#
0##
0/#
#1332
1m"
1l#
1"#
1##
1/#
#1344
0m"
0l#
0"#
0##
0/#
#1356
1m"
1l#
1"#
1##
1/#
#1368
0m"
0l#
0"#
0##
0/#
#1380
1m"
1l#
1"#
1##
1/#
#1392
0m"
0l#
0"#
0##
0/#
#1404
1m"
1l#
1"#
1##
1/#
#1416
0m"
0l#
0"#
0##
0/#
#1428
1m"
1l#
1"#
1##
1/#
#1440
0m"
0l#
0"#
0##
0/#
#1452
1m"
1l#
1"#
1##
1/#
#1464
0m"
0l#
0"#
0##
0/#
#1476
1m"
1l#
1"#
1##
1/#
#1488
0m"
0l#
0"#
0##
0/#
#1500
1m"
1l#
1"#
1##
1/#
#1512
0m"
0l#
0"#
0##
0/#
#1524
1m"
1l#
1"#
1##
1/#
#1536
0m"
0l#
0"#
0##
0/#
#1548
1m"
1l#
1"#
1##
1/#
#1560
0m"
0l#
0"#
0##
0/#
#1572
1m"
1l#
1"#
1##
1/#
#1584
0m"
0l#
0"#
0##
0/#
#1596
1m"
1l#
1"#
1##
1/#
#1608
0m"
0l#
0"#
0##
0/#
#1620
1m"
1l#
1"#
1##
1/#
#1632
0m"
0l#
0"#
0##
0/#
#1644
1m"
1l#
1"#
1##
1/#
#1656
0m"
0l#
0"#
0##
0/#
#1668
1m"
1l#
1"#
1##
1/#
#1680
0m"
0l#
0"#
0##
0/#
#1692
1m"
1l#
1"#
1##
1/#
#1704
0m"
0l#
0"#
0##
0/#
#1716
1m"
1l#
1"#
1##
1/#
#1728
0m"
0l#
0"#
0##
0/#
#1740
1m"
1l#
1"#
1##
1/#
#1752
0m"
0l#
0"#
0##
0/#
#1764
1m"
1l#
1"#
1##
1/#
#1776
0m"
0l#
0"#
0##
0/#
#1788
1m"
1l#
1"#
1##
1/#
#1800
0m"
0l#
0"#
0##
0/#
#1812
1m"
1l#
1"#
1##
1/#
#1824
0m"
0l#
0"#
0##
0/#
#1836
1m"
1l#
1"#
1##
1/#
#1848
0m"
0l#
0"#
0##
0/#
#1860
1m"
1l#
1"#
1##
1/#
#1872
0m"
0l#
0"#
0##
0/#
#1884
1m"
1l#
1"#
1##
1/#
#1896
0m"
0l#
0"#
0##
0/#
#1908
1m"
1l#
1"#
1##
1/#
#1920
0m"
0l#
0"#
0##
0/#
#1932
1m"
1l#
1"#
1##
1/#
#1944
0m"
0l#
0"#
0##
0/#
#1956
1m"
1l#
1"#
1##
1/#
#1968
0m"
0l#
0"#
0##
0/#
#1980
1m"
1l#
1"#
1##
1/#
#1992
0m"
0l#
0"#
0##
0/#
#2004
1m"
1l#
1"#
1##
1/#
#2016
0m"
0l#
0"#
0##
0/#
#2028
1m"
1l#
1"#
1##
1/#
#2040
0m"
0l#
0"#
0##
0/#
#2052
1m"
1l#
1"#
1##
1/#
#2064
0m"
0l#
0"#
0##
0/#
#2076
1m"
1l#
1"#
1##
1/#
#2088
0m"
0l#
0"#
0##
0/#
#2100
1m"
1l#
1"#
1##
1/#
#2112
0m"
0l#
0"#
0##
0/#
#2124
1m"
1l#
1"#
1##
1/#
#2136
0m"
0l#
0"#
0##
0/#
#2148
1m"
1l#
1"#
1##
1/#
#2160
0m"
0l#
0"#
0##
0/#
#2172
1m"
1l#
1"#
1##
1/#
#2184
0m"
0l#
0"#
0##
0/#
#2196
1m"
1l#
1"#
1##
1/#
#2208
0m"
0l#
0"#
0##
0/#
#2220
1m"
1l#
1"#
1##
1/#
#2232
0m"
0l#
0"#
0##
0/#
#2244
1m"
1l#
1"#
1##
1/#
#2256
0m"
0l#
0"#
0##
0/#
#2268
1m"
1l#
1"#
1##
1/#
#2280
0m"
0l#
0"#
0##
0/#
#2292
1m"
1l#
1"#
1##
1/#
#2304
0m"
0l#
0"#
0##
0/#
#2316
1m"
1l#
1"#
1##
1/#
#2328
0m"
0l#
0"#
0##
0/#
#2340
1m"
1l#
1"#
1##
1/#
#2352
0m"
0l#
0"#
0##
0/#
#2364
1m"
1l#
1"#
1##
1/#
#2376
0m"
0l#
0"#
0##
0/#
#2388
1m"
1l#
1"#
1##
1/#
#2400
0m"
0l#
0"#
0##
0/#
#2412
1m"
1l#
1"#
1##
1/#
#2424
0m"
0l#
0"#
0##
0/#
#2436
1m"
1l#
1"#
1##
1/#
#2448
0m"
0l#
0"#
0##
0/#
#2460
1m"
1l#
1"#
1##
1/#
#2472
0m"
0l#
0"#
0##
0/#
#2484
1m"
1l#
1"#
1##
1/#
#2496
0m"
0l#
0"#
0##
0/#
#2508
1m"
1l#
1"#
1##
1/#
#2520
0m"
0l#
0"#
0##
0/#
#2532
1m"
1l#
1"#
1##
1/#
#2544
0m"
0l#
0"#
0##
0/#
#2556
1m"
1l#
1"#
1##
1/#
#2568
0m"
0l#
0"#
0##
0/#
#2580
1m"
1l#
1"#
1##
1/#
#2592
0m"
0l#
0"#
0##
0/#
#2604
1m"
1l#
1"#
1##
1/#
#2616
0m"
0l#
0"#
0##
0/#
#2628
1m"
1l#
1"#
1##
1/#
#2640
0m"
0l#
0"#
0##
0/#
#2652
1m"
1l#
1"#
1##
1/#
#2664
0m"
0l#
0"#
0##
0/#
#2676
1m"
1l#
1"#
1##
1/#
#2688
0m"
0l#
0"#
0##
0/#
#2700
1m"
1l#
1"#
1##
1/#
#2712
0m"
0l#
0"#
0##
0/#
#2724
1m"
1l#
1"#
1##
1/#
#2736
0m"
0l#
0"#
0##
0/#
#2748
1m"
1l#
1"#
1##
1/#
#2760
0m"
0l#
0"#
0##
0/#
#2772
1m"
1l#
1"#
1##
1/#
#2784
0m"
0l#
0"#
0##
0/#
#2796
1m"
1l#
1"#
1##
1/#
#2808
0m"
0l#
0"#
0##
0/#
#2820
1m"
1l#
1"#
1##
1/#
#2832
0m"
0l#
0"#
0##
0/#
#2844
1m"
1l#
1"#
1##
1/#
#2856
0m"
0l#
0"#
0##
0/#
#2868
1m"
b0 &
b1 '
b0 (
b0 )
b100 j"
b0 "$
b1 #$
b0 $$
b0 %$
b100 f&
1l#
1"#
1##
1/#
#2880
0m"
0l#
0"#
0##
0/#
#2892
1m"
b0 g&
1l#
1"#
1##
1/#
0r"
0%#
#2904
0m"
0l#
0"#
0##
0/#
#2916
1m"
1l#
1"#
1##
1/#
1q"
0.#
00#
1n#
#2928
0m"
0l#
0"#
0##
0/#
#2940
1m"
1l#
1"#
1##
1/#
0q"
1|#
0o#
b10000 y#
0n#
0s"
#2952
0m"
0l#
0"#
0##
0/#
#2964
1m"
1l#
1"#
1##
1/#
0|#
b1 w#
#2976
0m"
0l#
0"#
0##
0/#
#2988
1m"
1l#
1"#
1##
1/#
b10 w#
#3000
0m"
0l#
0"#
0##
0/#
#3012
1m"
1l#
1"#
1##
1/#
b11 w#
#3024
0m"
0l#
0"#
0##
0/#
#3036
1m"
1l#
1"#
1##
1/#
b100 w#
#3048
0m"
0l#
0"#
0##
0/#
#3060
1m"
1l#
1"#
1##
1/#
b101 w#
#3072
0m"
0l#
0"#
0##
0/#
#3084
1m"
1l#
1"#
1##
1/#
b110 w#
#3096
0m"
0l#
0"#
0##
0/#
#3108
1m"
1l#
1"#
1##
1/#
b111 w#
#3120
0m"
0l#
0"#
0##
0/#
#3132
1m"
1l#
1"#
1##
1/#
b1000 w#
#3144
0m"
0l#
0"#
0##
0/#
#3156
1m"
1l#
1"#
1##
1/#
b1001 w#
#3168
0m"
0l#
0"#
0##
0/#
#3180
1m"
1l#
1"#
1##
1/#
b1010 w#
#3192
0m"
0l#
0"#
0##
0/#
#3204
1m"
1l#
1"#
1##
1/#
b1011 w#
#3216
0m"
0l#
0"#
0##
0/#
#3228
1m"
1l#
1"#
1##
1/#
b1100 w#
#3240
0m"
0l#
0"#
0##
0/#
#3252
1m"
1l#
1"#
1##
1/#
b1101 w#
#3264
0m"
0l#
0"#
0##
0/#
#3276
1m"
1l#
1"#
1##
1/#
b1110 w#
#3288
0m"
0l#
0"#
0##
0/#
#3300
1m"
1l#
1"#
1##
1/#
b1111 w#
#3312
0m"
0l#
0"#
0##
0/#
#3324
1m"
1l#
1"#
1##
1/#
b10000 w#
#3336
0m"
0l#
0"#
0##
0/#
#3348
1m"
1l#
1"#
1##
1/#
b10001 w#
#3360
0m"
0l#
0"#
0##
0/#
#3372
1m"
1l#
1"#
1##
1/#
b10010 w#
#3384
0m"
0l#
0"#
0##
0/#
#3396
1m"
1l#
1"#
1##
1/#
b10011 w#
#3408
0m"
0l#
0"#
0##
0/#
#3420
1m"
1l#
1"#
1##
1/#
b10100 w#
#3432
0m"
0l#
0"#
0##
0/#
#3444
1m"
1l#
1"#
1##
1/#
b10101 w#
#3456
0m"
0l#
0"#
0##
0/#
#3468
1m"
1l#
1"#
1##
1/#
b10110 w#
#3480
0m"
0l#
0"#
0##
0/#
#3492
1m"
1l#
1"#
1##
1/#
b10111 w#
#3504
0m"
0l#
0"#
0##
0/#
#3516
1m"
1l#
1"#
1##
1/#
b11000 w#
#3528
0m"
0l#
0"#
0##
0/#
#3540
1m"
1l#
1"#
1##
1/#
b11001 w#
#3552
0m"
0l#
0"#
0##
0/#
#3564
1m"
1l#
1"#
1##
1/#
b11010 w#
#3576
0m"
0l#
0"#
0##
0/#
#3588
1m"
1l#
1"#
1##
1/#
b11011 w#
#3600
0m"
0l#
0"#
0##
0/#
#3612
1m"
1l#
1"#
1##
1/#
b11100 w#
#3624
0m"
0l#
0"#
0##
0/#
#3636
1m"
1l#
1"#
1##
1/#
b11101 w#
#3648
0m"
0l#
0"#
0##
0/#
#3660
1m"
1l#
1"#
1##
1/#
b11110 w#
#3672
0m"
0l#
0"#
0##
0/#
#3684
1m"
1l#
1"#
1##
1/#
b11111 w#
#3696
0m"
0l#
0"#
0##
0/#
#3708
1m"
1l#
1"#
1##
1/#
b100000 w#
#3720
0m"
0l#
0"#
0##
0/#
#3732
1m"
1l#
1"#
1##
1/#
b100001 w#
#3744
0m"
0l#
0"#
0##
0/#
#3756
1m"
1l#
1"#
1##
1/#
b100010 w#
#3768
0m"
0l#
0"#
0##
0/#
#3780
1m"
1l#
1"#
1##
1/#
b100011 w#
#3792
0m"
0l#
0"#
0##
0/#
#3804
1m"
1l#
1"#
1##
1/#
b100100 w#
#3816
0m"
0l#
0"#
0##
0/#
#3828
1m"
1l#
1"#
1##
1/#
b100101 w#
#3840
0m"
0l#
0"#
0##
0/#
#3852
1m"
1l#
1"#
1##
1/#
b100110 w#
#3864
0m"
0l#
0"#
0##
0/#
#3876
1m"
1l#
1"#
1##
1/#
b100111 w#
#3888
0m"
0l#
0"#
0##
0/#
#3900
1m"
1l#
1"#
1##
1/#
b101000 w#
#3912
0m"
0l#
0"#
0##
0/#
#3924
1m"
1l#
1"#
1##
1/#
b101001 w#
#3936
0m"
0l#
0"#
0##
0/#
#3948
1m"
1l#
1"#
1##
1/#
b101010 w#
#3960
0m"
0l#
0"#
0##
0/#
#3972
1m"
1l#
1"#
1##
1/#
b101011 w#
#3984
0m"
0l#
0"#
0##
0/#
#3996
1m"
1l#
1"#
1##
1/#
b101100 w#
#4008
0m"
0l#
0"#
0##
0/#
#4020
1m"
1l#
1"#
1##
1/#
b101101 w#
#4032
0m"
0l#
0"#
0##
0/#
#4044
1m"
1l#
1"#
1##
1/#
b101110 w#
#4056
0m"
0l#
0"#
0##
0/#
#4068
1m"
1l#
1"#
1##
1/#
b101111 w#
#4080
0m"
0l#
0"#
0##
0/#
#4092
1m"
1l#
1"#
1##
1/#
b110000 w#
#4104
0m"
0l#
0"#
0##
0/#
#4116
1m"
1l#
1"#
1##
1/#
b110001 w#
#4128
0m"
0l#
0"#
0##
0/#
#4140
1m"
1l#
1"#
1##
1/#
b110010 w#
#4152
0m"
0l#
0"#
0##
0/#
#4164
1m"
1l#
1"#
1##
1/#
b110011 w#
#4176
0m"
0l#
0"#
0##
0/#
#4188
1m"
1l#
1"#
1##
1/#
b110100 w#
#4200
0m"
0l#
0"#
0##
0/#
#4212
1m"
1l#
1"#
1##
1/#
b110101 w#
#4224
0m"
0l#
0"#
0##
0/#
#4236
1m"
1l#
1"#
1##
1/#
b110110 w#
#4248
0m"
0l#
0"#
0##
0/#
